<?xml version="1.0" encoding="utf-8"?>
<!-- Generator: Adobe Illustrator 22.1.0, SVG Export Plug-In . SVG Version: 6.00 Build 0)  -->
<svg version="1.1" id="Capa_1" xmlns="http://www.w3.org/2000/svg" xmlns:xlink="http://www.w3.org/1999/xlink" x="0px" y="0px"
	 viewBox="0 0 60 60" style="enable-background:new 0 0 60 60;" xml:space="preserve">
<style type="text/css">
	.st0{fill:#88898A;}
</style>
<path class="st0" d="M0,0v60h60V0H0z M46.4,43.3l-2.8,2.8L30.2,32.7L16.7,46.1l-2.8-2.8l13.4-13.4L13.9,16.4l2.8-2.8L30.2,27
	l13.4-13.4l2.8,2.8L33,29.8L46.4,43.3z"/>
</svg>
