<?xml version="1.0" encoding="utf-8"?>
<!-- Generator: Adobe Illustrator 22.1.0, SVG Export Plug-In . SVG Version: 6.00 Build 0)  -->
<svg version="1.1" id="Capa_1" xmlns="http://www.w3.org/2000/svg" xmlns:xlink="http://www.w3.org/1999/xlink" x="0px" y="0px"
	 viewBox="0 0 60 60" style="enable-background:new 0 0 60 60;" xml:space="preserve">
<style type="text/css">
	.st0{fill:#88898A;}
	.st1{fill:#FFFFFF;}
</style>
<g>
	<path class="st0" d="M37.4,51.8l-8.4-7.9l11.6-1.6L45.8,32L51,42.3l5.3,0.7V9.3c0-4.9-3.9-8.8-8.8-8.8H10.3c-4.8,0-8.8,3.9-8.8,8.8
		v37.2c0,4.9,3.9,8.8,8.8,8.8h26.4L37.4,51.8z"/>
</g>
<g>
	<g>
		<path class="st1" d="M47.9,15.2h-19c-0.6,0-1.1-0.5-1.1-1.1s0.5-1.1,1.1-1.1h19c0.6,0,1.1,0.5,1.1,1.1S48.5,15.2,47.9,15.2z"/>
		<path class="st1" d="M47.9,30h-19c-0.6,0-1.1-0.5-1.1-1.1s0.5-1.1,1.1-1.1h19c0.6,0,1.1,0.5,1.1,1.1S48.5,30,47.9,30z"/>
		<path class="st1" d="M14.2,18.4c-0.2,0-0.4-0.1-0.6-0.2l-4.8-3.6c-0.5-0.3-0.6-1-0.2-1.5c0.3-0.5,1-0.6,1.5-0.2l4,3l6.6-7.7
			c0.4-0.4,1-0.5,1.5-0.1c0.4,0.4,0.5,1,0.1,1.5L15,18C14.8,18.3,14.5,18.4,14.2,18.4z"/>
		<path class="st1" d="M14.2,33.2c-0.2,0-0.4-0.1-0.6-0.2l-4.8-3.6c-0.5-0.3-0.6-1-0.2-1.5c0.3-0.5,1-0.6,1.5-0.2l4,3l6.6-7.7
			c0.4-0.4,1-0.5,1.5-0.1c0.4,0.4,0.5,1,0.1,1.5L15,32.8C14.8,33,14.5,33.2,14.2,33.2z"/>
		<path class="st1" d="M14.2,49c-0.2,0-0.4-0.1-0.6-0.2l-4.8-3.6c-0.5-0.3-0.6-1-0.2-1.5c0.3-0.5,1-0.6,1.5-0.2l4,3l6.6-7.7
			c0.4-0.4,1-0.5,1.5-0.1c0.4,0.4,0.5,1,0.1,1.5L15,48.6C14.8,48.8,14.5,49,14.2,49z"/>
	</g>
</g>
<g>
	<polygon class="st0" points="45.8,36.3 49.7,44 58.5,45.2 52.2,51.1 53.7,59.5 45.8,55.5 38,59.5 39.5,51.1 33.2,45.2 41.9,44 	"/>
</g>
</svg>
