<?xml version="1.0" encoding="utf-8"?>
<!-- Generator: Adobe Illustrator 22.1.0, SVG Export Plug-In . SVG Version: 6.00 Build 0)  -->
<svg version="1.1" id="Capa_1" xmlns="http://www.w3.org/2000/svg" xmlns:xlink="http://www.w3.org/1999/xlink" x="0px" y="0px"
	 viewBox="0 0 60 60" style="enable-background:new 0 0 60 60;" xml:space="preserve">
<style type="text/css">
	.st0{fill:#020202;}
	.st1{fill:#FFFFFF;}
</style>
<circle class="st0" cx="30" cy="30" r="29.5"/>
<path class="st1" d="M34.6,17v10.9c0,0.6-0.5,1.1-1.1,1.1l0,0c-0.6,0-1.1-0.5-1.1-1.1V12.1c0-1.2-0.9-2.1-2.1-2.1l0,0
	c-1.2,0-2.1,0.9-2.1,2.1v15.8c0,0.6-0.5,1.1-1.1,1.1l0,0c-0.6,0-1.1-0.5-1.1-1.1V15.3c0-1-0.8-1.8-1.8-1.8l0,0c-1,0-1.8,0.8-1.8,1.8
	v14c0,0.6-0.5,1.1-1.1,1.1l0,0c-0.6,0-1.1-0.5-1.1-1.1v-8.8c0-1-0.8-1.8-1.8-1.8l0,0c-1,0-1.8,0.8-1.8,1.8v19
	C17.6,48,22.3,50,28.8,50c4.7,0,8.7-2.4,10.6-5.9c0.8-1.3,5.7-9,6.2-9.8c0.5-0.9,1.2-2.1,2.1-2.8c0.5-0.4,0.8-0.9,1.1-1.5
	c0.1-0.1,0.3-1.9-1-1.8c-1.1,0-2.4,0.5-3.3,1.1c-1,0.7-2.4,1.9-3.5,3.9c-0.4,0.6-1,1.1-1.8,1.1c-0.7,0-0.5-0.3-0.6-1.8l0,0v-2.1V17
	c0-1.2-0.9-2.1-2.1-2.1l0,0C35.5,14.9,34.6,15.8,34.6,17z"/>
</svg>
