<?xml version="1.0" encoding="utf-8"?>
<!-- Generator: Adobe Illustrator 22.1.0, SVG Export Plug-In . SVG Version: 6.00 Build 0)  -->
<svg version="1.1" id="Capa_1" xmlns="http://www.w3.org/2000/svg" xmlns:xlink="http://www.w3.org/1999/xlink" x="0px" y="0px"
	 viewBox="0 0 60 60" style="enable-background:new 0 0 60 60;" xml:space="preserve">
<style type="text/css">
	.st0{fill:#CBB292;}
	.st1{fill:#7F6E5D;}
	.st2{fill:#E6E7E8;}
	.st3{fill:#4482C3;}
</style>
<g>
	<path class="st0" d="M44.6,8.6H7.1c-1.1,0-2.1,0.9-2.1,2v46.8c0,1.1,0.9,2,2.1,2H30l14.6-14.2V8.6z"/>
	<path class="st1" d="M30,59.5V47.3c0-1.1,0.9-2,2.1-2h12.5L30,59.5z"/>
	<g>
		<path class="st2" d="M11.2,30H31c0.6,0,1-0.4,1-1c0-0.6-0.4-1-1-1H11.2c-0.6,0-1,0.4-1,1C10.2,29.6,10.6,30,11.2,30z"/>
		<path class="st2" d="M31,33.1H11.2c-0.6,0-1,0.4-1,1s0.4,1,1,1H31c0.6,0,1-0.4,1-1S31.7,33.1,31,33.1z"/>
		<path class="st2" d="M31,38.1H11.2c-0.6,0-1,0.4-1,1c0,0.6,0.4,1,1,1H31c0.6,0,1-0.4,1-1C32.1,38.5,31.7,38.1,31,38.1z"/>
		<path class="st2" d="M24.8,43.2H11.2c-0.6,0-1,0.4-1,1s0.4,1,1,1h13.5c0.6,0,1-0.4,1-1S25.4,43.2,24.8,43.2z"/>
		<path class="st2" d="M24.8,48.3H11.2c-0.6,0-1,0.4-1,1s0.4,1,1,1h13.5c0.6,0,1-0.4,1-1S25.4,48.3,24.8,48.3z"/>
	</g>
	<path class="st3" d="M42.5,0.5L30,10.7h5.2V32c0,1.1,0.9,2,2.1,2h10.4c1.1,0,2.1-0.9,2.1-2V10.7H55L42.5,0.5z"/>
</g>
</svg>
