<?xml version="1.0" encoding="utf-8"?>
<!-- Generator: Adobe Illustrator 22.1.0, SVG Export Plug-In . SVG Version: 6.00 Build 0)  -->
<svg version="1.1" id="Capa_1" xmlns="http://www.w3.org/2000/svg" xmlns:xlink="http://www.w3.org/1999/xlink" x="0px" y="0px"
	 viewBox="0 0 60 60" style="enable-background:new 0 0 60 60;" xml:space="preserve">
<style type="text/css">
	.st0{fill:#88898A;}
</style>
<g>
	<path class="st0" d="M51.8,36.4l-5.5,7.9l-3.9-3.2c-0.4-0.3-1-0.3-1.4,0.1c-0.3,0.4-0.3,1,0.1,1.4l4.7,3.9c0.2,0.1,0.4,0.2,0.6,0.2
		c0,0,0.1,0,0.1,0c0.3,0,0.5-0.2,0.7-0.4l6.1-8.8c0.3-0.4,0.2-1.1-0.2-1.4C52.7,35.8,52.1,35.9,51.8,36.4z"/>
	<path class="st0" d="M0.5,6.6V44c5.1-4,16.7-13,22.1-17.6L0.5,6.6z"/>
	<path class="st0" d="M38.3,28.5c2.4-1.6,5.3-2.5,8.4-2.5c4.2,0,8,1.7,10.8,4.3V6.6l-22,19.7L38.3,28.5z"/>
	<path class="st0" d="M31.3,27.4l24.7-22H2.1l24.7,22C28,28.5,30,28.5,31.3,27.4z"/>
	<path class="st0" d="M36.6,29.7L34,27.6l-1.4,1.3c-1,0.9-2.3,1.3-3.6,1.3c-1.3,0-2.6-0.4-3.6-1.3l-1.4-1.2
		C18.6,32.4,6.5,41.8,1.4,45.7c0,0,0,0,0.1,0h30c-0.3-1.3-0.5-2.6-0.5-3.9C31,37,33.2,32.6,36.6,29.7z"/>
	<path class="st0" d="M46.7,29c-7,0-12.8,5.7-12.8,12.8s5.7,12.8,12.8,12.8s12.8-5.7,12.8-12.8S53.8,29,46.7,29z M46.7,52.6
		c-6,0-10.8-4.9-10.8-10.8S40.8,31,46.7,31s10.8,4.9,10.8,10.8S52.7,52.6,46.7,52.6z"/>
</g>
</svg>
